{"trin":
{
   "content":[
      {
         "id":104,
         "name":"2A3j)dcmzC0jGzXqt",
         "status":"DRAFT",
         "lastModifiedDate":"2018-03-06 17:11:58",
         "createdBy":"cm.admin1",
         "createdDate":"2018-03-06 17:11:58",
         "lastModifiedBy":"cm.admin1"
      },
      {
         "id":103,
         "name":"C!gi3EQ4fIkF",
         "status":"DRAFT",
         "lastModifiedDate":"2018-03-06 17:10:20",
         "createdBy":"cm.admin1",
         "createdDate":"2018-03-06 17:10:20",
         "lastModifiedBy":"cm.admin1"
      },
      {
         "id":102,
         "name":"f5@bd#imT6DvvIijbQ",
         "status":"DRAFT",
         "lastModifiedDate":"2018-03-06 17:07:41",
         "createdBy":"cm.admin1",
         "createdDate":"2018-03-06 17:07:41",
         "lastModifiedBy":"cm.admin1"
      },
      {
         "id":101,
         "name":"7H6YDSjw@bB8FLDxvwk",
         "status":"DRAFT",
         "lastModifiedDate":"2018-03-06 17:05:33",
         "createdBy":"cm.admin1",
         "createdDate":"2018-03-06 17:05:33",
         "lastModifiedBy":"cm.admin1"
      },
      {
         "id":100,
         "name":"asdaswxssadws",
         "status":"DRAFT",
         "lastModifiedDate":"2018-03-06 17:05:24",
         "createdBy":"Chris.Quon",
         "createdDate":"2018-03-06 17:05:24",
         "lastModifiedBy":"Chris.Quon"
      },
      {
         "id":99,
         "name":"asdaswxs",
         "status":"DRAFT",
         "lastModifiedDate":"2018-03-06 16:58:16",
         "createdBy":"Chris.Quon",
         "createdDate":"2018-03-06 16:58:16",
         "lastModifiedBy":"Chris.Quon"
      },
      {
         "id":98,
         "name":"sdfsdf",
         "status":"DRAFT",
         "lastModifiedDate":"2018-03-06 16:54:02",
         "createdBy":"Chris.Quon",
         "createdDate":"2018-03-06 16:54:02",
         "lastModifiedBy":"Chris.Quon"
      },
      {
         "id":97,
         "name":"sdsdwsd",
         "status":"DRAFT",
         "lastModifiedDate":"2018-02-28 19:39:13",
         "createdBy":"Chris.Quon",
         "createdDate":"2018-02-28 19:39:13",
         "lastModifiedBy":"Chris.Quon"
      },
      {
         "id":96,
         "name":"ScenarioProjectTest",
         "status":"DRAFT",
         "lastModifiedDate":"2018-02-23 22:34:10",
         "createdBy":"danny_admin",
         "createdDate":"2018-02-23 22:34:10",
         "lastModifiedBy":"danny_admin"
      },
      {
         "id":95,
         "name":"DannyTest10",
         "status":"DRAFT",
         "lastModifiedDate":"2018-02-23 22:31:28",
         "createdBy":"danny_admin",
         "createdDate":"2018-02-23 22:31:28",
         "lastModifiedBy":"danny_admin"
      },
      {
         "id":94,
         "name":"TestScenario123",
         "status":"DRAFT",
         "lastModifiedDate":"2018-02-23 21:06:44",
         "createdBy":"luis.cervantes",
         "createdDate":"2018-02-23 21:06:44",
         "lastModifiedBy":"luis.cervantes"
      },
      {
         "id":93,
         "name":"TestScenarioa",
         "status":"DRAFT",
         "lastModifiedDate":"2018-02-23 20:53:00",
         "createdBy":"danny_admin",
         "createdDate":"2018-02-23 20:53:00",
         "lastModifiedBy":"danny_admin"
      },
      {
         "id":92,
         "name":"MyScenario",
         "status":"DRAFT",
         "lastModifiedDate":"2018-02-23 20:51:34",
         "createdBy":"danny_admin",
         "createdDate":"2018-02-23 20:51:34",
         "lastModifiedBy":"danny_admin"
      },
      {
         "id":91,
         "name":"DannyTest7",
         "status":"DRAFT",
         "lastModifiedDate":"2018-02-23 20:35:27",
         "createdBy":"danny_admin",
         "createdDate":"2018-02-23 20:35:27",
         "lastModifiedBy":"danny_admin"
      },
      {
         "id":90,
         "name":"dannyTest6",
         "status":"DRAFT",
         "lastModifiedDate":"2018-02-23 20:26:07",
         "createdBy":"danny_admin",
         "createdDate":"2018-02-23 20:26:07",
         "lastModifiedBy":"danny_admin"
      },
      {
         "id":89,
         "name":"DannyTest5",
         "status":"DRAFT",
         "lastModifiedDate":"2018-02-23 20:24:14",
         "createdBy":"danny_admin",
         "createdDate":"2018-02-23 20:24:14",
         "lastModifiedBy":"danny_admin"
      },
      {
         "id":88,
         "name":"dannyTest4",
         "status":"DRAFT",
         "lastModifiedDate":"2018-02-23 20:21:29",
         "createdBy":"danny_admin",
         "createdDate":"2018-02-23 20:21:29",
         "lastModifiedBy":"danny_admin"
      },
      {
         "id":87,
         "name":"dannyTest3",
         "status":"DRAFT",
         "lastModifiedDate":"2018-02-23 20:18:09",
         "createdBy":"danny_admin",
         "createdDate":"2018-02-23 20:18:09",
         "lastModifiedBy":"danny_admin"
      },
      {
         "id":86,
         "name":"DannyTest2",
         "status":"DRAFT",
         "lastModifiedDate":"2018-02-23 20:17:02",
         "createdBy":"danny_admin",
         "createdDate":"2018-02-23 20:17:02",
         "lastModifiedBy":"danny_admin"
      },
      {
         "id":85,
         "name":"sdfecsdfs",
         "status":"DRAFT",
         "lastModifiedDate":"2018-02-23 16:17:19",
         "createdBy":"Chris.Quon",
         "createdDate":"2018-02-23 16:17:19",
         "lastModifiedBy":"Chris.Quon"
      }
   ],
   "last":false,
   "totalElements":104,
   "totalPages":6,
   "sort":[
      {
         "direction":"DESC",
         "property":"lastModifiedDate",
         "ignoreCase":false,
         "nullHandling":"NATIVE",
         "descending":true,
         "ascending":false
      }
   ],
   "numberOfElements":20,
   "first":true,
   "size":20,
   "number":0
}
}
